"PRODUCT_NAME";"PRICE";"IMAGE_URL";"RATING";"MERCHANT"
"hanphone Xiaomi 12 Pro dengan home credit dp bisa 0";"Rp12.999.000";"https://images.tokopedia.net/img/cache/200-square/VqbcmM/2022/8/26/785996db-5f9c-46f7-a367-624510ae9edd.jpg";"0";"ayu hci"
"Hanphone J2 Pro 2018 2nd Black";"Rp850.000";"https://images.tokopedia.net/img/cache/200-square/hDjmkQ/2022/8/25/c396683d-fd49-451c-9658-b338a4874140.jpg";"0";"rahmawati 56"
"Hanphone J2 Pro 2018 2nd Black";"Rp850.000";"https://images.tokopedia.net/img/cache/200-square/hDjmkQ/2022/8/25/77548430-7536-441b-a3cb-6cd582f20d47.jpg";"0";"keylah04"
"Hanphone vivo y35 8/128";"Rp3.399.000";"https://images.tokopedia.net/img/cache/200-square/VqbcmM/2022/8/25/f2715e7e-d08a-4476-bb67-80b0ddce664f.jpg";"0";"ratna store6"
"DUDUKAN STAND HANPHONE / HOLDER HANPHONE UNIVERSAL / TATAKAN IPAD";"Rp39.998";"https://images.tokopedia.net/img/cache/200-square/hDjmkQ/2022/8/25/7e7b7abb-a90d-49bb-8669-c3608ec24ae9.jpg";"0";"Fellicitystore"
"hanphone second";"Rp1.300.000";"https://images.tokopedia.net/img/cache/200-square/VqbcmM/2022/8/23/859a5ca3-f465-419d-bb53-6e6f518a0b2b.jpg";"0";"Angga Phone Store"
"Hp Samsung Murah Hp Samsung Murah Promo Hanphone Samsung Hp Jadul";"Rp530.000";"https://images.tokopedia.net/img/cache/200-square/VqbcmM/2022/8/23/77a80a5e-049a-4b71-85e9-4d737dee1929.jpg";"0";"Sadewa_Jaya"
"hanphone android";"Rp2.500.000";"https://images.tokopedia.net/img/cache/200-square/VqbcmM/2022/8/22/c8483c4b-fce2-4a5a-abba-0416635538e9.jpg";"0";"Mulyashop123"
"HANPHONE SAMSUNG GALAXY A03 CORE 2/32 GARANSI RESMI";"Rp1.190.000";"https://images.tokopedia.net/img/cache/200-square/VqbcmM/2022/8/20/36010ae7-ef5a-459d-95eb-2e5aa64bc50c.jpg";"0";"Blue Sky Communication"
"Hanphone J2 Pro 2018 2nd Black diskripsi produk";"Rp1.250.000";"https://images.tokopedia.net/img/cache/200-square/hDjmkQ/2022/8/19/77065d61-956d-4c67-9a42-ccb7fa578cb4.jpg";"0";"denatakina"
"HANPHONE ANDROID MURAH ALDO S12 RAM 4/32 GB FREE KARTU PERDANA";"Rp1.153.000";"https://images.tokopedia.net/img/cache/200-square/hDjmkQ/2022/8/18/c94f7844-888d-4c22-bc5d-9d72b09debda.jpg";"0";"asyka_syah"
"hanphone murah android";"Rp500.000";"https://images.tokopedia.net/img/cache/200-square/VqbcmM/2022/8/16/1620ffeb-892a-459a-99df-27514d009151.jpg";"0";"CAKEMRK"
"Dus Hanphone Xiaomi Redmi 5";"Rp186.000";"https://images.tokopedia.net/img/cache/200-square/hDjmkQ/2022/8/12/74367206-05fc-4bc3-85cd-a70110507487.jpg";"0";"Laywhwangwbw"
"suku cadang Baterai Hanphone Sony Xperia Z3 Mini Compact D5803 D5833";"Rp154.000";"https://images.tokopedia.net/img/cache/200-square/hDjmkQ/2022/8/12/468eaad8-76a8-4782-a038-688c60154cd3.jpg";"0";"FirdausAsriandari store"
"perkakas Baterai Hanphone Xiaomi Mi Max BM49 Batre HP Battery Xiaomi";"Rp160.000";"https://images.tokopedia.net/img/cache/200-square/hDjmkQ/2022/8/12/8dacfdfd-6e0c-43ec-8958-b61e5d5bdb03.jpg";"0";"humamsunanto shop"
"sparepart Baterai Hanphone LG G5 G5 SE BL-42D1F Batre HP LG Battery L";"Rp160.000";"https://images.tokopedia.net/img/cache/200-square/hDjmkQ/2022/8/11/1c301800-f5db-45dd-bcd2-b1bc4512b3a7.jpg";"0";"rusdipriyanistore"
"perkakas Baterai Hanphone Nokia Lumia 640 BV-T5C Batre HP Battery Nok";"Rp160.000";"https://images.tokopedia.net/img/cache/200-square/hDjmkQ/2022/8/11/d82dd55e-409b-457c-ad2c-66a70386a914.jpg";"0";"anugrahoktalita shop"
"limited stock Baterai Hanphone Lenovo K4 Note A7010 Vibe X3 BL256 Bat";"Rp154.000";"https://images.tokopedia.net/img/cache/200-square/hDjmkQ/2022/8/11/16b145dd-43a6-4c2b-b0cc-b96075bb2f00.jpg";"0";"rusdipriyanistore"
"accessories Baterai Hanphone Lenovo Vibe Shot Z920 BL246 Batre HP Bat";"Rp160.000";"https://images.tokopedia.net/img/cache/200-square/hDjmkQ/2022/8/11/9d2be2f7-f17d-4831-8b32-d954fa35dffa.jpg";"0";"rusdipriyanistore"
"tools n parts Baterai Hanphone HTC Desire 816 BOP9C100 Batre HP HTC B";"Rp166.000";"https://images.tokopedia.net/img/cache/200-square/hDjmkQ/2022/8/11/f345ea41-046c-4734-8f3e-d7ce5fac87ca.jpg";"0";"anugrahoktalita shop"
"perkakas Baterai Hanphone LG G3 G3 Stylus BL-53YH Batre HP Battery LG";"Rp154.000";"https://images.tokopedia.net/img/cache/200-square/hDjmkQ/2022/8/11/3035cd1a-b49a-46ca-9f81-c2fe3ea2f836.jpg";"0";"AtikahAzalia store"
"perkakas Baterai Hanphone HTC One M9 M9 Plus M9W B0PGE100 Batre HP Ba";"Rp141.000";"https://images.tokopedia.net/img/cache/200-square/hDjmkQ/2022/8/11/7988dc84-819f-49d4-b8b4-ea99af0e9c08.jpg";"0";"AtikahAzalia store"
"Hanphone J2 Pro 2018 2nd Black";"Rp850.000";"https://images.tokopedia.net/img/cache/200-square/hDjmkQ/2022/8/8/0ee887ba-fabd-4c1a-bf7f-70bc4ca981e1.jpg";"0";"haerulAnwar"
"Hanphone Galaxy M12 Biru 4/64 No minus";"Rp1.650.000";"https://images.tokopedia.net/img/cache/200-square/VqbcmM/2022/8/8/de9c8efc-5360-4021-95e2-ab84c648c11d.jpg";"0";"TokoRelaSelalu"
"Hanphone J2 Pro 2018 2nd Black";"Rp1.150.000";"https://images.tokopedia.net/img/cache/200-square/hDjmkQ/2022/8/7/69782965-5dd2-4a0a-9b1c-1ba6568fb0dc.jpg";"0";"fahrulstore77"
"hanphone oppo";"Rp7.000.000";"https://images.tokopedia.net/img/cache/200-square/VqbcmM/2022/8/5/36f454d2-eb7b-47e8-bb39-c40005b99ad6.jpg";"5";"Rikidry"
"N150 2020 Hp hanphone 150 2020 Original";"Rp425.000";"https://images.tokopedia.net/img/cache/200-square/VqbcmM/2022/7/31/20ac2b93-1edd-4477-aad3-255e04574782.jpg";"0";"Al 27 Store.id"
"Samsung A9 2018 second 6/128 GB Hanphone Second";"Rp2.100.000";"https://images.tokopedia.net/img/cache/200-square/VqbcmM/2022/7/31/6f5bbb2d-15ec-4b10-86ed-0af554688812.jpg";"0";"PIDITECH"
"hanphone second";"Rp2.500.000";"https://images.tokopedia.net/img/cache/200-square/VqbcmM/2022/7/31/81062061-d435-407d-946b-8b2e56a8cb12.jpg";"0";"new gadge"
"Hanphone lenovo Legion duel 2 16/512 warna putih";"Rp9.800.000";"https://images.tokopedia.net/img/cache/200-square/VqbcmM/2022/7/30/3e3c31a8-2f31-4ca9-af0e-6d8f2e99d1db.jpg";"0";"imaniar5"
"HANPHONE Xiaomi 11T Pro 12GB / 256GB ANDROID OS";"Rp7.499.000";"https://images.tokopedia.net/img/cache/200-square/VqbcmM/2022/7/28/89d08578-d2b0-4c10-8c09-ce31d25644f0.jpg";"0";"PT INDO BISMAR"
"HANPHONE Xiaomi 12 8GB 256GB ANDROID OS";"Rp9.999.000";"https://images.tokopedia.net/img/cache/200-square/VqbcmM/2022/7/28/4902090c-3c29-4163-8de7-ee0ee623443f.jpg";"0";"PT INDO BISMAR"
"HANPHONE REALME C35 RAM 4/64GB RAM 4/128GB";"Rp2.299.000";"https://images.tokopedia.net/img/cache/200-square/VqbcmM/2022/7/28/e7d8595b-93f8-4e79-b8e4-695d98b6dd76.jpg";"0";"VISITEL MONJALI"
"hanphone second";"Rp1.650.000";"https://images.tokopedia.net/img/cache/200-square/VqbcmM/2022/7/27/b905dd88-cc88-477c-9194-2f5a8624fead.jpg";"0";"anmstore99"
"hanphone second";"Rp1.100.000";"https://images.tokopedia.net/img/cache/200-square/VqbcmM/2022/7/27/7b77bfd8-e4a7-4ca1-8c30-47e54e2e2f21.jpg";"0";"siti chalimah90"
"dus hanphone xiaomi redmi 5";"Rp221.000";"https://images.tokopedia.net/img/cache/200-square/hDjmkQ/2022/7/22/fed6391d-4303-4630-adb5-c0f3a68b7af6.jpg";"0";"rizqonn store"
"hanphone murah android oppo A57";"Rp4.890.000";"https://images.tokopedia.net/img/cache/200-square/VqbcmM/2022/7/22/f6cbb0c6-3f7b-447c-90a1-cf8a22b19699.jpg";"5";"gallery_wd"
"dus hanphone xiaomi redmi 5";"Rp224.000";"https://images.tokopedia.net/img/cache/200-square/hDjmkQ/2022/7/22/4db20652-3ec9-4eb7-b832-3cb911a6cc3d.jpg";"0";"damiaan shop"
"Headset Rexus f30 Gaming RGB for Hanphone dan PC";"Rp230.000";"https://images.tokopedia.net/img/cache/200-square/hDjmkQ/2022/7/22/9df019b8-66b0-4dc5-b77c-1ef5a716572d.jpg";"0";"puputbisma"
"dus hanphone xiaomi redmi 5";"Rp215.000";"https://images.tokopedia.net/img/cache/200-square/hDjmkQ/2022/7/20/2e76a5aa-7b8a-4f6b-8a41-5221e1f7924b.jpg";"0";"radims store"
"hanphone oppo A96";"Rp3.000.000";"https://images.tokopedia.net/img/cache/200-square/VqbcmM/2022/7/10/73095b5e-f983-4434-a9b5-81d4df734bae.jpg";"0";"ZoanaStore"
"hanphone second";"Rp7.500.000";"https://images.tokopedia.net/img/cache/200-square/VqbcmM/2022/7/8/ca153190-d711-4ffe-954b-c54c9640e848.jpg";"0";"queen fajar"
"HANPHONE IPHONE 13 128GB SECOND";"Rp12.100.000";"https://images.tokopedia.net/img/cache/200-square/VqbcmM/2022/7/2/eb757fd5-31e2-457a-9b9f-698d5eefe1ea.jpg";"0";"VISITEL MONJALI"
"HANPHONE NOKIA LAMA";"Rp50.000";"https://images.tokopedia.net/img/cache/200-square/VqbcmM/2022/7/2/a6cc4ad7-f884-44e8-a618-1f3f532c2046.jpg";"5";"Khansa Luxury"
"Nokia 108 Hp Nokia 108 Handphone Nokia Jadul Hp Nokia Hanphone Nokia";"Rp348.000";"https://images.tokopedia.net/img/cache/200-square/VqbcmM/2022/6/29/7d4f07e3-f049-4faa-acd5-c860862b450d.jpg";"0";"Fanstastic Store"
"hanphone iphone xr 256";"Rp12.599.000";"https://images.tokopedia.net/img/cache/200-square/VqbcmM/2022/6/27/abbe577a-deac-4891-8548-bde7b20ebc64.jpg";"0";"Azm_store17"
"Hanphone Jadul Qwerty";"Rp180.000";"https://images.tokopedia.net/img/cache/200-square/VqbcmM/2022/6/23/7947e8ca-0aed-4aa9-b005-da57f3957a5f.jpg";"0";"Babeloakan"
"HANPHONE SAMSUNG GALAXY A53 5G 8GB - 256GB SMARTPHONE ANDROID OS";"Rp6.525.000";"https://images.tokopedia.net/img/cache/200-square/VqbcmM/2022/6/20/fd652c4d-6519-4870-90f1-846cd9298bae.jpg";"0";"ASFIZA STORE"
"Hanphone Infinix Hot 12i 4/64";"Rp1.525.000";"https://images.tokopedia.net/img/cache/200-square/VqbcmM/2022/6/18/23e51ae5-b8e1-428e-83e1-4ae7ad95e4b4.jpg";"0";"Channel-Com"
"HANPHONE SECOND SAMSUNG J2 PRIME 4G LITE";"Rp450.000";"https://images.tokopedia.net/img/cache/200-square/VqbcmM/2022/6/18/d46afe50-9b6d-4ca2-8e88-62e6f4d1de1c.jpg";"0";"CV.HP BEKAS"
"hanphone Samsung A10";"Rp1.350.000";"https://images.tokopedia.net/img/cache/200-square/VqbcmM/2022/6/15/7442dcb3-1176-4c73-ad47-89d5ff971780.jpg";"0";"juragan oshop"
"hanphone oppo Reno6";"Rp4.700.000";"https://images.tokopedia.net/img/cache/200-square/VqbcmM/2022/6/15/44e7e5f0-ca50-476d-9997-9f960ebe2a52.jpg";"0";"juragan oshop"
"HANPHONE ANDROID MURAH ALDO S12 RAM 432 GB FREE KARTU PERDANA Diskon";"Rp1.014.000";"https://images.tokopedia.net/img/cache/200-square/hDjmkQ/2022/6/14/5767bff4-57b7-4f93-afab-e36ecf43e368.jpg";"0";"avisaadira shop"
"HANPHONE ANDROID MURAH ALDO S12 RAM 432 GB FREE KARTU PERDANA";"Rp1.073.300";"https://images.tokopedia.net/img/cache/200-square/hDjmkQ/2022/6/14/297dbcd5-7f4a-44c3-845c-112ca37c06b3.jpg";"0";"dasrofistore703"
"promo indo Maret hanphone";"Rp99.750";"https://images.tokopedia.net/img/cache/200-square/VqbcmM/2022/6/11/3ec782d3-e646-4811-ae93-ff644edaa3f6.jpg";"5";"mitra kuota"
"hanphone Iphone 7+ 32";"Rp2.450.000";"https://images.tokopedia.net/img/cache/200-square/VqbcmM/2022/6/10/01c7df2a-9a97-43a8-b6fc-031dc99923e5.jpg";"0";"Selvia blokm"
"HANPHONE SAMSUNG GALAXY A13 4GB - 128GB SMARTPHONE ANDROID OS";"Rp2.499.000";"https://images.tokopedia.net/img/cache/200-square/VqbcmM/2022/6/9/897ed4bf-583a-471c-8554-12536b2fb504.jpg";"0";"ROMICOMPUTER"
"Work HANPHONE ANDROID MURAH ALDO S12 RAM 432 GB FREE KARTU PERDANA";"Rp1.033.500";"https://images.tokopedia.net/img/cache/200-square/hDjmkQ/2022/6/8/14a0f38b-bec9-451d-afda-1b3bf7f14540.jpg";"0";"zaskiasz shop"
"hanphone oppo f1s";"Rp750.000";"https://images.tokopedia.net/img/cache/200-square/VqbcmM/2022/6/5/e2383ae7-43a5-4b87-a64c-c18771d8c525.jpg";"0";"bezoajahh"
"Hanphone realme coalour blue";"Rp19.500.000";"https://images.tokopedia.net/img/cache/200-square/hDjmkQ/2022/6/2/b3452a88-b5ac-4ca2-af3a-af001de0a0d9.jpg";"0";"zeline store88"
"Hanphone samsung A30s";"Rp2.795.000";"https://images.tokopedia.net/img/cache/200-square/hDjmkQ/2022/6/2/82b512f2-e1f5-4d1e-a2d7-4c4219234a30.jpg";"0";"zeline store88"
"Hanphone promo Reno 4 4+64GB 5.8 Inci Smartphone Murah";"Rp600.000";"https://images.tokopedia.net/img/cache/200-square/VqbcmM/2022/6/1/eb1c9f80-4f05-43f3-86d5-9cd72544eac5.jpg";"5";"Store Tgr official"
"HANPHONE ANDROID MURAH ALDO S12 RAM 432 GB FREE KARTU PERDANA";"Rp963.100";"https://images.tokopedia.net/img/cache/200-square/hDjmkQ/2022/6/1/a6d42715-bc48-417c-b91e-5d15c8f7ed63.jpg";"0";"lenivaagilia shop"
"Promo HANPHONE SECOND SAMSUNG J2 PRIME 4G LITE Diskon";"Rp579.600";"https://images.tokopedia.net/img/cache/200-square/hDjmkQ/2022/6/1/3ad8a714-ca88-4808-8d14-2ea0bbb8e2a3.jpg";"0";"jesslyntaleetha shop"
"Dus Hanphone Xiaomi Redmi 5";"Rp195.000";"https://images.tokopedia.net/img/cache/200-square/hDjmkQ/2022/5/31/75af70f1-d79f-4655-b1a1-476b3648f885.jpg";"0";"aslamstore202"
"Dus Hanphone Xiaomi Redmi 5";"Rp195.000";"https://images.tokopedia.net/img/cache/200-square/hDjmkQ/2022/5/30/f625b0d9-313f-4df3-b9e5-5332b1af5e7a.jpg";"0";"flyara store"
"hanphone bekas berkualitas SAMSUNG A02S 4/64";"Rp629.959";"https://images.tokopedia.net/img/cache/200-square/VqbcmM/2022/5/30/50821462-d73e-4122-bdf7-34423ff35e38.jpg";"0";"Kelontong Teknik"
"Case Hardcase Softcase Hanphone Vivo Y91 Y93 Y95 Y12S Y20 Y20S Y20SG";"Rp96.000";"https://images.tokopedia.net/img/cache/200-square/hDjmkQ/2022/5/25/cb27e85f-fd88-4218-8c9c-029f4bac2f2c.jpg";"0";"cantique680"
"Hanphone Second Bekas xiaomi redmi note 9 pro 8/128 white unit only";"Rp2.760.000";"https://images.tokopedia.net/img/cache/200-square/hDjmkQ/2022/5/25/fc74d5a4-f0b6-442f-9663-6ae9b8765053.jpg";"0";"celi113"
"hanphone second";"Rp2.400.000";"https://images.tokopedia.net/img/cache/200-square/VqbcmM/2022/5/25/2d523022-86e1-4f2e-9ed8-4ef49818a463.jpg";"0";"Gadgett Bagas"
"HANPHONE OPPO A16 4GB / 64GB";"Rp2.499.000";"https://images.tokopedia.net/img/cache/200-square/VqbcmM/2022/5/24/580f9214-4256-488d-bc65-c6208208308a.jpg";"0";"BAGASEXKOMPUTER"
"HANPHONE OPPO A16 4GB / 64GB";"Rp2.499.000";"https://images.tokopedia.net/img/cache/200-square/VqbcmM/2022/5/24/a8c5af58-eeeb-4ebc-bd5b-48f630b4133c.jpg";"0";"Zuhrocomputer"
"HANPHONE OPPO A16 4GB / 64GB";"Rp2.499.000";"https://images.tokopedia.net/img/cache/200-square/VqbcmM/2022/5/21/96fe247c-a86d-4793-b1eb-e68b5c56efe6.jpg";"0";"PANJI COMPUTER"
"HANPHONE OPPO A16 4GB / 64GB";"Rp2.499.000";"https://images.tokopedia.net/img/cache/200-square/VqbcmM/2022/5/21/993f52ba-025d-4788-aba2-f8053f699ea3.jpg";"0";"Dlifcomputer"
"hanphone second Oppo 11pro";"Rp5.000.000";"https://images.tokopedia.net/img/cache/200-square/VqbcmM/2022/5/17/2e7a6de5-6cfb-41e6-9b32-490db517a365.jpg";"0";"Alfarezel cell"
"hanphone samsung s10 plus";"Rp5.000.000";"https://images.tokopedia.net/img/cache/200-square/VqbcmM/2022/5/17/9720e833-62a2-4bf3-8fd7-cafec73fb3c2.jpg";"0";"SE CELL"
"HANPHONE SAMSUNG GALAXY S21 5G 125GB";"Rp8.999.000";"https://images.tokopedia.net/img/cache/200-square/VqbcmM/2022/5/16/258f64c0-9e58-4d44-8f7b-03dec25a3d93.jpg";"0";"Sanstore23"
"HANPHONE REALME 8 PRO 8/128";"Rp4.300.000";"https://images.tokopedia.net/img/cache/200-square/VqbcmM/2022/5/16/9ec71cd7-5855-488d-837e-2a8359ed574f.jpg";"0";"Sanstore23"
"hanphone second";"Rp2.099.000";"https://images.tokopedia.net/img/cache/200-square/VqbcmM/2022/5/16/0135d27e-dac6-487e-9762-bf90f8bc87f9.jpg";"0";"ag official storee"
"Hanphone Apple Iphone 13 pro max ibox";"Rp17.990.000";"https://images.tokopedia.net/img/cache/200-square/VqbcmM/2022/5/12/7a367f8d-0021-48b9-96e4-51ad46ab9ac7.jpg";"0";"Sanstore23"
"HANPHONE ANDROID MURAH ALDO S12 RAM 432 GB FREE KARTU PERDANA";"Rp993.800";"https://images.tokopedia.net/img/cache/200-square/hDjmkQ/2022/4/30/3fb99f38-61b4-43f1-85e4-95cbf38244c4.jpg";"0";"juanastore id"
"HANPHONE BEKAS XIAOMI REDMI NOTE 9 PRO 1288 GREEN BATANGAN";"Rp2.975.000";"https://images.tokopedia.net/img/cache/200-square/hDjmkQ/2022/4/30/56a35ad5-7d92-42c7-ae44-f1d1c7199905.jpg";"0";"velianastore id"
"HANPHONE BEKAS XIAOMI REDMI NOTE 9 PRO 1288 GREEN BATANGAN";"Rp2.975.000";"https://images.tokopedia.net/img/cache/200-square/hDjmkQ/2022/4/29/a9de5ba5-8f3f-4806-b4b4-df288b0294c5.jpg";"0";"lianast0re id"
"HANPHONE SAMSUNG GALAXY A13 4GB - 128GB SMARTPHONE ANDROID OS";"Rp2.499.000";"https://images.tokopedia.net/img/cache/200-square/VqbcmM/2022/4/26/561c47ad-d25c-4848-902f-3c6483f19a1b.jpg";"0";"PT INDO BISMAR"
"Aksesoris Gimbal Stabilizer Hanphone 3 Axis Handphone PHIP Foldable";"Rp1.616.000";"https://images.tokopedia.net/img/cache/200-square/hDjmkQ/2022/4/24/6070cb02-294a-4539-bfbe-f40ad7732948.jpg";"0";"Cantika664"
"Sten Docking Dudukan Hanphone / Tablet / ipad Standing Hp Universal";"Rp26.000";"https://images.tokopedia.net/img/cache/200-square/hDjmkQ/2022/4/24/c4478b63-04fe-4be0-9ec4-4aab70c79784.jpg";"0";"Cahaya568"
"STAND HOLDER HP DUDUKAN MEJA UNIVERSAL TABLET HANPHONE MINI PORTABLE";"Rp16.000";"https://images.tokopedia.net/img/cache/200-square/hDjmkQ/2022/4/24/03a63d72-abbe-4927-8b73-fc82c6dbceb7.jpg";"0";"Cheryl245"
"Hp Hape Hanphone Prince PC21 Bisa TV Big Speaker Powerbank";"Rp395.000";"https://images.tokopedia.net/img/cache/200-square/VqbcmM/2022/4/23/7b6dbe97-a0ce-4712-bc02-06e66ae7ab6d.jpg";"5";"Al 27 Store.id"
"HANPHONE SAMSUNG GALAXY A53 5G 8GB - 256GB SMARTPHONE ANDROID OS";"Rp6.499.000";"https://images.tokopedia.net/img/cache/200-square/VqbcmM/2022/4/23/6d89d853-7683-431f-bb3c-0761550bf43d.jpg";"5";"PT INDO BISMAR"
"HANPHONE SAMSUNG GALAXY S22+ 12GB - 256GB 5G SMARTPHONE";"Rp15.999.000";"https://images.tokopedia.net/img/cache/200-square/VqbcmM/2022/4/22/309b73f9-bbe1-4c0f-85f5-a2c039916fbf.jpg";"0";"PT INDO BISMAR"
"Nokia 108 Hp Nokia 108 Handphone Nokia Jadul Hp Nokia Hanphone Nokia";"Rp315.000";"https://images.tokopedia.net/img/cache/200-square/hDjmkQ/2022/4/22/70f476d4-5466-49fe-8185-da0ff41bacf5.jpg";"0";"abelnefazah shop"
"Nokia 108 Hp Nokia 108 Handphone Nokia Jadul Hp Nokia Hanphone Nokia";"Rp315.000";"https://images.tokopedia.net/img/cache/200-square/hDjmkQ/2022/4/21/e44f9dba-763d-407f-99cb-83b71233f15b.jpg";"0";"valerineadzoff shop"
"Nokia 108 Hp Nokia 108 Handphone Nokia Jadul Hp Nokia Hanphone Nokia";"Rp315.000";"https://images.tokopedia.net/img/cache/200-square/hDjmkQ/2022/4/21/c72ec741-299e-490a-b93a-0de356da0f0a.jpg";"0";"sisilatuconsinah shop"
"HANPHONE ANDROID MURAH ALDO S12 RAM 4/32 GB FREE KARTU PERDANA";"Rp1.050.000";"https://images.tokopedia.net/img/cache/200-square/hDjmkQ/2022/4/15/c3d98b5a-b19a-4ac2-99c3-b7ec2ba9a4e1.jpg";"0";"Toko Kiva"
"hanphone second, huawei p40 pro. mulus";"Rp7.700.000";"https://images.tokopedia.net/img/cache/200-square/VqbcmM/2022/4/9/ef7c08fc-0692-46fb-9090-25e1217cc026.jpg";"0";"kiranasyuper"
"hanphone infinix";"Rp3.150.000";"https://images.tokopedia.net/img/cache/200-square/VqbcmM/2022/4/7/4f47c049-72ee-45bd-a7d5-4acf02a50315.jpg";"5";"Adem&#39;store"
"HANPHONE SAMSUNG A13 RAM 4/128GB RAM 6/128GB";"Rp2.499.000";"https://images.tokopedia.net/img/cache/200-square/VqbcmM/2022/4/1/b1a023f0-bf69-48f9-9d85-f90da4358e05.jpg";"0";"VISITEL MONJALI"
"Hanphone xiaomi Note 11 Ram 4 Gb Rom 128 Gb garansi resmi 1,5 tahun";"Rp2.469.575";"https://images.tokopedia.net/img/cache/200-square/VqbcmM/2022/3/29/61610c06-e0ea-4e4d-8dc2-a14a84a11aac.jpg";"5";"PT ATALLA CELL"
"HANPHONE VIVO V21 5G 8GB+4GB/128GB";"Rp3.652.000";"https://images.tokopedia.net/img/cache/200-square/VqbcmM/2022/3/29/fa337c41-65e8-46f4-91af-b565f4e168a1.jpg";"0";"KOKO 89"
"Hanphone redmi 10";"Rp3.000.000";"https://images.tokopedia.net/img/cache/200-square/VqbcmM/2022/3/26/328d14c9-d53f-43f0-b728-d00657ba2934.jpg";"0";"Azm_store17"
